com\homemade\App.class
com\homemade\controller\OrderController.class
com\homemade\model\Identifiable.class
com\homemade\model\Order.class
com\homemade\resource\ResourceAssembler.class
com\homemade\repository\OrderRepository.class
com\homemade\repository\InMemoryRepository.class
com\homemade\resource\OrderResourceAssembler.class
com\homemade\repository\IdGenerator.class
com\homemade\resource\OrderResource.class
