C:\Users\Andrew\Documents\NetBeansProjects\com.spring.hateoas\src\main\java\com\homemade\model\Order.java
C:\Users\Andrew\Documents\NetBeansProjects\com.spring.hateoas\src\main\java\com\homemade\repository\IdGenerator.java
C:\Users\Andrew\Documents\NetBeansProjects\com.spring.hateoas\src\main\java\com\homemade\repository\OrderRepository.java
C:\Users\Andrew\Documents\NetBeansProjects\com.spring.hateoas\src\main\java\com\homemade\model\Identifiable.java
C:\Users\Andrew\Documents\NetBeansProjects\com.spring.hateoas\src\main\java\com\homemade\App.java
C:\Users\Andrew\Documents\NetBeansProjects\com.spring.hateoas\src\main\java\com\homemade\resource\OrderResource.java
C:\Users\Andrew\Documents\NetBeansProjects\com.spring.hateoas\src\main\java\com\homemade\resource\OrderResourceAssembler.java
C:\Users\Andrew\Documents\NetBeansProjects\com.spring.hateoas\src\main\java\com\homemade\repository\InMemoryRepository.java
C:\Users\Andrew\Documents\NetBeansProjects\com.spring.hateoas\src\main\java\com\homemade\controller\OrderController.java
C:\Users\Andrew\Documents\NetBeansProjects\com.spring.hateoas\src\main\java\com\homemade\resource\ResourceAssembler.java
